Data Exercise – Emil Joson - Data Analysis Portfolio
…
str(bible)

tibble [99,553 × 2] (S3: tbl_df/tbl/data.frame)
 $ gutenberg_id: int [1:99553] 10 10 10 10 10 10 10 10 10 10 ...
 $ text        : chr [1:99553] "The New Testament of the King James Bible" "The Gospel According to Saint Matthew" "The Gospel According to Saint Mark" "The Gospel According to Saint Luke" ...

bible

# A tibble: 99,553 × 2
   gutenberg_id text                                                     
          <int> <chr>                                                    
 1           10 The New Testament of the King James Bible                
 2           10 The Gospel According to Saint Matthew                    
 3           10 The Gospel According to Saint Mark                       
 4           10 The Gospel According to Saint Luke                       
 5           10 The Gospel According to Saint John                       
 6           10 The Acts of the Apostles                                 
 7           10 The Epistle of Paul the Apostle to the Romans            
 8           10 The First Epistle of Paul the Apostle to the Corinthians 
 9           10 The Second Epistle of Paul the Apostle to the Corinthians
10           10 The Epistle of Paul the Apostle to the Galatians         
# ℹ 99,543 more rows

It looks like it’s a big chunk of text, as expected.It seems to have two columns: gutenberg_id (which is just 10) and text. The text appears to be individual lines. If that’s the case, we then have 99,553 lines of text.

The first thing we can do is transform the data into the tidy text format using the tidytext package.

bible_tidy <- bible |> 
    unnest_tokens(word, text)

This breaks down the object into individual words.

bible_tidy

# A tibble: 852,462 × 2
   gutenberg_id word     
          <int> <chr>    
 1           10 the      
 2           10 new      
 3           10 testament
 4           10 of       
 5           10 the      
 6           10 king     
 7           10 james    
 8           10 bible    
 9           10 the      
10           10 gospel   
# ℹ 852,452 more rows
…
I can’t say I’m too surprised but these are honestly pretty boring words. Fortunately, we can remove boring words (called stop words in the package) so that we can take a look at more interesting words.

bible_interesting <- bible_tidy |>
    anti_join(get_stopwords())

Joining with `by = join_by(word)`

word_count2 <- bible_interesting |>
    count(word, sort=TRUE)
word_count2

# A tibble: 12,829 × 2
   word      n
   <chr> <int>
 1 shall  9838
 2 unto   8997
 3 lord   7830
 4 thou   5474
 5 thy    4600
 6 god    4446
 7 said   3999
 8 ye     3983
 9 thee   3827
10 1      2783
# ℹ 12,819 more rows

Now those seem more like bible words. Let’s make a wordcloud of these as well using the wordcloud2 package. It’s even interactive where you can hover your mouse cursor on the word to tell you how many instances they’ve been used in the KJV bible.

wordcloud2(word_count2, color = "random-light", backgroundColor = "white")

Interestingly, we can also take a look at two-word combinations called bigrams. Let’s see if those are any more interesting than the most common words list.

bible_bigrams <- bible |>
    unnest_tokens(bigram, text, token = "ngrams", n = 2) |>
    filter(!is.na(bigram))

bible_bigrams

# A tibble: 777,790 × 2
   gutenberg_id bigram          
          <int> <chr>           
 1           10 the new         
 2           10 new testament   
 3           10 testament of    
 4           10 of the          
 5           10 the king        
 6           10 king james      
 7           10 james bible     
 8           10 the gospel      
 9           10 gospel according
10           10 according to    
# ℹ 777,780 more rows

bible_bigrams |>
    count(bigram, sort = TRUE)

# A tibble: 155,621 × 2
   bigram       n
   <chr>    <int>
 1 of the   10955
 2 the lord  6487
 3 and the   6037
 4 in the    4783
 5 and he    2716
 6 shall be  2375
 7 to the    2054
 8 all the   2036
 9 and they  1968
10 unto the  1932
# ℹ 155,611 more rows
…
Joining with `by = join_by(word)`

Warning in inner_join(bible_tidy, get_sentiments("bing")): Detected an unexpected many-to-many relationship between `x` and `y`.
ℹ Row 417712 of `x` matches multiple rows in `y`.
ℹ Row 5210 of `y` matches multiple rows in `x`.
ℹ If a many-to-many relationship is expected, set `relationship =
  "many-to-many"` to silence this warning.

bible_bing

# A tibble: 1,341 × 3
   word   sentiment     n
   <chr>  <chr>     <int>
 1 great  positive    962
 2 good   positive    720
 3 like   positive    669
 4 evil   negative    613
 5 holy   positive    611
 6 heaven positive    582
 7 sin    negative    447
 8 peace  positive    429
 9 work   positive    419
10 gold   positive    417
# ℹ 1,331 more rows
…
